\relax 
\pgfsyspdfmark {pgfid1}{4736286}{50644704}
\pgfsyspdfmark {pgfid2}{4736286}{50644704}
\pgfsyspdfmark {pgfid3}{4736286}{50644704}
\pgfsyspdfmark {pgfid4}{4736286}{50644704}
\pgfsyspdfmark {pgfid5}{4736286}{50644704}
\newlabel{fig:Cindy}{{}{4}}
\pgfsyspdfmark {pgfid6}{4736286}{50644704}
\pgfsyspdfmark {pgfid7}{4736286}{50644704}
\@input{reference.aux}
\pgfsyspdfmark {pgfid8}{4736286}{50644704}
