\relax 
\@writefile{lof}{\contentsline {figure}{\numberline {1}{\ignorespaces Logo}}{1}}
\newlabel{fig:logo}{{1}{1}}
\@writefile{toc}{\contentsline {section}{\numberline {1}Introduction}{1}}
\@writefile{lot}{\contentsline {table}{\numberline {1}{\ignorespaces Table}}{1}}
\newlabel{table:teammembers}{{1}{1}}
\@writefile{toc}{\contentsline {section}{\numberline {2}IT's role in Amazon}{2}}
